{
  "Comment.nvim": { "branch": "master", "commit": "0236521ea582747b58869cb72f70ccfa967d2e89" },
  "LuaSnip": { "branch": "master", "commit": "a4de64570b9620875c8ea04175cd07ed8e32ac99" },
  "catppuccin": { "branch": "main", "commit": "d7521f6050b94cb0e23067f63829d86886f870fe" },
  "cmp-buffer": { "branch": "main", "commit": "3022dbc9166796b644a841a02de8dd1cc1d311fa" },
  "cmp-nvim-lsp": { "branch": "main", "commit": "44b16d11215dce86f253ce0c30949813c0a90765" },
  "cmp-nvim-lua": { "branch": "main", "commit": "f12408bdb54c39c23e67cab726264c10db33ada8" },
  "cmp-path": { "branch": "main", "commit": "91ff86cd9c29299a64f968ebb45846c485725f23" },
  "cmp_luasnip": { "branch": "master", "commit": "05a9ab28b53f71d1aece421ef32fee2cb857a843" },
  "crates.nvim": { "branch": "main", "commit": "aac57ef84cf4fecf7907114b22e875f84a6128ee" },
  "diffview.nvim": { "branch": "main", "commit": "d38c1b5266850f77f75e006bcc26213684e1e141" },
  "dropbar.nvim": { "branch": "master", "commit": "6707e264889f1aadd6edaf22c11c257cc7faa9df" },
  "efmls-configs-nvim": { "branch": "main", "commit": "7db13d3f609640e9f12d7d6f1251e6a8f964f579" },
  "fidget.nvim": { "branch": "main", "commit": "0ba1e16d07627532b6cae915cc992ecac249fb97" },
  "friendly-snippets": { "branch": "main", "commit": "43727c2ff84240e55d4069ec3e6158d74cb534b6" },
  "gitsigns.nvim": { "branch": "main", "commit": "af0f583cd35286dd6f0e3ed52622728703237e50" },
  "heirline.nvim": { "branch": "master", "commit": "7f1e805dfc001d5dbb7d894105063f463f6c7dcc" },
  "hop.nvim": { "branch": "master", "commit": "1a1eceafe54b5081eae4cb91c723abd1d450f34b" },
  "indent-blankline.nvim": { "branch": "master", "commit": "29be0919b91fb59eca9e90690d76014233392bef" },
  "lazy.nvim": { "branch": "main", "commit": "96584866b9c5e998cbae300594d0ccfd0c464627" },
  "lsp_signature.nvim": { "branch": "master", "commit": "9ed85616b772a07f8db56c26e8fff2d962f1f211" },
  "markdown-preview.nvim": { "branch": "master", "commit": "a923f5fc5ba36a3b17e289dc35dc17f66d0548ee" },
  "mini.move": { "branch": "main", "commit": "b3bca8e493f8d1da343ff1be06c21a47e2fde1c0" },
  "neo-tree.nvim": { "branch": "main", "commit": "f053f09962819c1558cd93639aa80edf7c314c17" },
  "neodev.nvim": { "branch": "main", "commit": "80487e4f7bfa11c2ef2a1b461963db019aad6a73" },
  "neogit": { "branch": "master", "commit": "d3c5687a78cffc25026ff31d2fcbd61a2a3e067f" },
  "nui.nvim": { "branch": "main", "commit": "c0c8e347ceac53030f5c1ece1c5a5b6a17a25b32" },
  "nvim-autopairs": { "branch": "master", "commit": "0f04d78619cce9a5af4f355968040f7d675854a1" },
  "nvim-cmp": { "branch": "main", "commit": "0b751f6beef40fd47375eaf53d3057e0bfa317e4" },
  "nvim-colorizer.lua": { "branch": "master", "commit": "dde3084106a70b9a79d48f426f6d6fec6fd203f7" },
  "nvim-lspconfig": { "branch": "master", "commit": "36e4ffec0a9e373ac9dbf7949d3567c8f04ca3df" },
  "nvim-surround": { "branch": "main", "commit": "4f0e1f470595af067eca9b872778d83c7f52f134" },
  "nvim-treesitter": { "branch": "master", "commit": "7b26b085880f5c99c9e6109c81ed3b08db90ce50" },
  "nvim-treesitter-textobjects": { "branch": "master", "commit": "e1e670a86274d5cb681e475d4891ea1afe605ced" },
  "nvim-ts-autotag": { "branch": "main", "commit": "6be1192965df35f94b8ea6d323354f7dc7a557e4" },
  "nvim-ts-context-commentstring": { "branch": "main", "commit": "92e688f013c69f90c9bbd596019ec10235bc51de" },
  "nvim-web-devicons": { "branch": "master", "commit": "5de460ca7595806044eced31e3c36c159a493857" },
  "obsidian.nvim": { "branch": "main", "commit": "6e72c9ed34f2c1566af9b690c7fe88aaa18c52f4" },
  "plenary.nvim": { "branch": "master", "commit": "50012918b2fc8357b87cff2a7f7f0446e47da174" },
  "schemastore.nvim": { "branch": "main", "commit": "f934fbbf417cf05da7f1576c67655ab25f7b702d" },
  "smart-splits.nvim": { "branch": "master", "commit": "c8a9173d70cbbd1f6e4a414e49e31df2b32a1362" },
  "statuscol.nvim": { "branch": "main", "commit": "98d02fc90ebd7c4674ec935074d1d09443d49318" },
  "telescope-fzf-native.nvim": { "branch": "main", "commit": "6c921ca12321edaa773e324ef64ea301a1d0da62" },
  "telescope.nvim": { "branch": "master", "commit": "20bf20500c95208c3ac0ef07245065bf94dcab15" },
  "treesj": { "branch": "main", "commit": "7b6e1ce4bfd679071a16ed212be6b3b1e0840dd4" },
  "typescript-tools.nvim": { "branch": "master", "commit": "102ba313f87e1f9f9864f681dd7779cac8f6d3ea" },
  "vim-illuminate": { "branch": "master", "commit": "3bd2ab64b5d63b29e05691e624927e5ebbf0fb86" },
  "vim-matchup": { "branch": "master", "commit": "d30b72d20f01478a8486f15a57c89fe3177373db" },
  "which-key.nvim": { "branch": "main", "commit": "4433e5ec9a507e5097571ed55c02ea9658fb268a" }
}